128 -24 824
992
-72 -16 888
-112 -104 760
-72 912
8 -24 -24 -88 -48 -40 712
992
-120 -96 -64 688
-24 80 -64 -72 720
-48 32 -8 880
-8 -32 936
-88 -112 -40 -88 632
-56 -120 -40 -72 672
-96 -120 760
-72 8 -72 -16 792
-32 -64 -120 -120 -24 -104 -40 -72 352
-64 -80 -120 -56 104 -48 -56 408
-56 -32 888
-120 -32 -88 -32 688
-16 -8 -8 -104 824
40 -64 -96 768
-88 -80 -120 -80 592
992
-32 -64 -64 72 -40 -112 -96 456
120 -24 -120 704
