26

-4
10
-1
14
8
-5
8

-2
-2
11
7
-9
3
-10

-5
-5
-6
-2
14
-8
-1

6
-2
11
11
-6
-3
2

-1
10
10
-6
12
4
-4

14
-3
-2
2
12
-4
-1

2
-8
-8
-7
-5
-10
14

10
-1
7
-4
3
8
13

9
-6
-6
-10
10
-1
-6

9
9
6
-2
13
6
4

-7
10
14
7
-9
-2
-1

-6
12
4
-4
-1
9
-7

6
15
11
-10
13
-8
-2

-6
-10
15
-10
-2
11
-1

-9
13
2
-8
6
9
13

1
-3
8
10
12
15
1

-8
14
9
-4
4
-2
-2

-10
-1
3
4
4
-3
9

13
-8
-7
2
-4
13
13

-6
10
-10
13
11
5
-10

8
7
-2
-6
-1
-3
-6

-10
12
-9
-5
-2
7
-10

-4
15
2
-9
10
-3
-4

-2
-5
10
13
3
15
1

-3
-3
-3
-4
10
7
-6

8
-1
-1
5
4
7
2
